<svg xmlns="http://www.w3.org/2000/svg" width="14" height="14" viewBox="0 0 14 14">
    <g fill="none" fill-rule="evenodd">
        <g fill="#000">
            <g>
                <g>
                    <path d="M18.295 5.705c-.39-.39-1.02-.39-1.41 0L12 10.59 7.115 5.705c-.39-.39-1.02-.39-1.41 0-.39.39-.39 1.02 0 1.41L10.59 12l-4.885 4.885c-.39.39-.39 1.02 0 1.41.39.39 1.02.39 1.41 0L12 13.41l4.885 4.885c.39.39 1.02.39 1.41 0 .39-.39.39-1.02 0-1.41L13.41 12l4.885-4.885c.39-.39.39-1.02 0-1.41z" transform="translate(-964.000000, -300.000000) translate(447.000000, 285.000000) translate(512.000000, 10.000000)"/>
                </g>
            </g>
        </g>
    </g>
</svg>
